{
	"_id": "_design/user",
	"language": "javascript",
	"views": {
		
		"by_id": {
			"map":"function(d) {\n\n\tif(d.doctype === 'user') {\n\t\temit(d._id, d);\n\t}\n\n}\n"
		},
		
		"by_username": {
			"map":"function(d) {\n\n\tif(d.doctype === 'user') {\n\t\temit(d.username, d);\n\t}\n\t\n}"
		},
		
		"by_emailAddresses": {
			"map":"function(d) {\n\n\t// Only emit users with email\n\tif(d.doctype === 'user' && d.emailAddresses) {\n\t\n\t\t// Go through all email addresses\n\t\tvar collection = d.emailAddresses;\n\t\tfor(var i = 0, length = collection.length; i < length; ++i) {\n\t\t\temit(collection[i], d);\n\t\t}\n\t\t\n\t}\n\t\n}"
		},
		
		"by_username_password": {
			"map":"function(d) {\n\n\tif(d.doctype === 'user') {\n\t\temit([d.username, d.password], d);\n\t}\n\n}"
		},
		
		"by_email_password": {
			"map":"function(d) {\n\n\t// Only emit users with email\n\tif(d.doctype === 'user' && d.emailAddresses) {\n\t\n\t\t// Go through all email addresses\n\t\tvar collection = d.emailAddresses;\n\t\tfor(var i = 0, length = collection.length; i < length; ++i) {\n\t\t\temit([collection[i], d.password], d);\n\t\t}\n\t\t\n\t}\n\t\n}"
		}
   }
}
