{
	"_id": "_design/institution",
	"language": "javascript",
	"views": {
		
		"by_id": {
			"map":"function(doc) {\n\tif(doc.doctype === 'institution') {\n\t\temit(doc._id, doc);\n\t}\n}"
		},
		
		
		"by_name": {
			"map":"function(doc) {\n\tif(doc.doctype === 'institution') {\n\t\temit(doc.name, doc);\n\t}\n}"
		}
		
	}
}
